…
``` r
library(mywx)
library(tidyverse)

# current verison
packageVersion("mywx")
```

    ## [1] '0.1.0'

``` r
mywx_districts()
```

    ## # A tibble: 51 x 6
    ##             id        name locationcategoryid locationrootid latitude longitude
    ##  *       <chr>       <chr>              <chr>          <chr>    <dbl>     <dbl>
    ##  1 LOCATION:17  BATU PAHAT           DISTRICT     LOCATION:1 1.854800  102.9325
    ##  2 LOCATION:18 JOHOR BAHRU           DISTRICT     LOCATION:1 1.465500  103.7578
    ##  3 LOCATION:19      KLUANG           DISTRICT     LOCATION:1 2.025100  103.3328
    ##  4 LOCATION:20 KOTA TINGGI           DISTRICT     LOCATION:1 1.738100  103.8999
    ##  5 LOCATION:21      LEDANG           DISTRICT     LOCATION:1 2.262401  102.6498
    ##  6 LOCATION:22     MERSING           DISTRICT     LOCATION:1 2.431200  103.8405
    ##  7 LOCATION:23        MUAR           DISTRICT     LOCATION:1 2.044200  102.5689
    ##  8 LOCATION:24    NUSAJAYA           DISTRICT     LOCATION:1 1.413590  103.6317
    ##  9 LOCATION:25     SEGAMAT           DISTRICT     LOCATION:1 2.514800  102.8158
    ## 10 LOCATION:26     PONTIAN           DISTRICT     LOCATION:1 1.516380  103.3839
    ## # ... with 41 more rows
…
``` r
mywx_towns()
```

    ## # A tibble: 51 x 6
    ##              id        name locationcategoryid locationrootid latitude longitude
    ##  *        <chr>       <chr>              <chr>          <chr>    <dbl>     <dbl>
    ##  1 LOCATION:122  AYER HITAM               TOWN     LOCATION:1   1.9150  103.1808
    ##  2 LOCATION:123  BATU PAHAT               TOWN     LOCATION:1   1.8548  102.9325
    ##  3 LOCATION:124 JOHOR BAHRU               TOWN     LOCATION:1   1.4655  103.7578
    ##  4 LOCATION:125       LABIS               TOWN     LOCATION:1   2.3850  103.0210
    ##  5 LOCATION:126     TANGKAK               TOWN     LOCATION:1   2.2673  102.5453
    ##  6 LOCATION:127        MUAR               TOWN     LOCATION:1   2.0442  102.5689
    ##  7 LOCATION:128       PAGOH               TOWN     LOCATION:1   2.1495  102.7704
    ##  8 LOCATION:129      KLUANG               TOWN     LOCATION:1   2.0251  103.3328
    ##  9 LOCATION:130 KOTA TINGGI               TOWN     LOCATION:1   1.7381  103.8999
    ## 10 LOCATION:131     MERSING               TOWN     LOCATION:1   2.4312  103.8405
    ## # ... with 41 more rows

``` r
mywx_touristdests()
```

    ## # A tibble: 30 x 6
    ##              id              name locationcategoryid locationrootid latitude longitude
    ##  *        <chr>             <chr>              <chr>          <chr>    <dbl>     <dbl>
    ##  1 LOCATION:310     BATU FERINGGI        TOURISTDEST     LOCATION:9  5.47090  100.2453
    ##  2 LOCATION:311     BUKIT BENDERA        TOURISTDEST     LOCATION:9  2.37330  102.5104
    ##  3 LOCATION:312      BUKIT TINGGI        TOURISTDEST     LOCATION:8  2.28720  103.6726
    ##  4 LOCATION:313      BUKIT FRASER        TOURISTDEST     LOCATION:8  3.71260  101.7412
    ##  5 LOCATION:314 CAMERON HIGHLANDS        TOURISTDEST     LOCATION:8  4.48333  101.4500
    ##  6 LOCATION:315         CHERATING        TOURISTDEST     LOCATION:8  4.12557  103.3939
    ##  7 LOCATION:316            DESARU        TOURISTDEST     LOCATION:1  1.54020  104.2680
    ##  8 LOCATION:317 GENTING HIGHLANDS        TOURISTDEST     LOCATION:8  3.39545  101.7792
    ##  9 LOCATION:318             KIJAL        TOURISTDEST    LOCATION:16  4.35000  103.4833
    ## 10 LOCATION:319             LUMUT        TOURISTDEST    LOCATION:10  4.23230  100.6298
    ## # ... with 20 more rows
…
